8

6 6
10
1 4
4 4
1 3
3 0
3 4
2 2
4 2
2 5
2 3
0 0
5 1

7 7
10
3 4
1 0
2 4
5 3
4 6
1 4
3 6
6 2
6 3
2 2
5 1

10 10
8
0 2
1 4
2 6
3 1
3 5
5 3
0 9
9 0
5 1

10 10
8
3 0
4 7
6 4
9 9
0 8
8 1
1 1
5 1
10 2

10 10
20
8 2
0 4
5 1
2 1
2 9
6 5
4 4
1 6
9 4
2 4
9 1
6 8
9 7
0 7
8 8
7 4
2 1
3 8
7 9
1 0
10 2

15 15
20
3 4
4 4
4 12
9 13
5 1
0 5
7 7
3 6
5 2
9 11
0 8
7 0
5 6
2 14
9 4
5 4
6 5
6 6
5 3
1 4
10 2

20 20
45
4 6
0 3
2 4
8 5
2 19
5 18
3 17
5 13
6 15
9 15
4 0
7 4
9 6
4 15
0 15
6 4
3 7
7 19
8 1
0 5
6 1
2 7
6 16
9 16
1 16
3 16
5 17
1 18
8 8
6 2
7 3
1 4
9 4
9 2
6 0
7 11
1 17
5 12
2 13
0 13
1 18
3 0
2 2
6 6
8 0
10 2

15 15
45
9 7
6 5
5 12
5 14
2 14
4 14
7 14
3 12
1 12
6 12
0 12
3 12
9 13
6 13
5 4
2 4
9 4
8 1
0 6
8 4
1 2
4 6
3 6
9 6
8 6
9 4
1 5
5 5
3 9
1 3
4 10
7 10
1 10
10 7
10 5
10 5
13 3
14 7
13 4
13 3
8 6
8 5
8 2
6 9
1 1
5 1
