7

19 12
9
3 9
11 1
11 5
12 5
6 1
16 6
10 3
3 2
10 3
5 2

20 17
15
4 14
16 16
6 14
16 6
3 16
6 1
17 16
15 3
19 15
13 13
2 11
19 13
14 9
12 14
18 16
3 1

6 5
33
2 3
5 3
1 2
3 2
5 2
1 1
2 4
1 1
4 4
2 1
2 3
3 4
4 1
4 2
3 1
5 2
2 2
2 2
4 3
1 3
4 2
4 3
3 1
2 2
2 3
4 1
1 3
4 3
4 3
5 2
4 2
1 4
3 2
5 2

11 20
25
2 5
4 6
6 1
10 18
9 17
7 16
10 8
3 1
4 5
6 12
10 17
8 3
10 1
5 4
5 11
10 9
7 13
9 13
5 10
10 9
5 13
6 17
6 1
5 12
2 9
4 1

11 9
23
7 2
4 2
7 7
2 1
6 1
3 7
1 1
3 1
7 6
5 1
7 5
7 4
9 8
7 5
9 3
4 4
6 6
4 7
7 2
6 3
5 7
8 2
2 7
5 2

9 18
25
4 10
8 9
7 2
3 16
4 6
2 9
2 6
1 7
1 6
5 6
2 15
5 9
1 8
3 2
8 9
2 6
1 17
7 13
3 12
4 3
6 7
5 14
5 15
8 16
1 16
4 1

15 8
34
7 7
7 6
10 4
3 5
1 2
6 6
8 7
12 4
9 7
9 3
9 1
2 2
2 7
6 4
11 2
9 3
8 7
14 3
4 3
5 5
12 4
5 5
12 4
5 6
1 1
11 4
5 3
3 2
3 7
6 7
11 4
4 4
10 6
6 5
2 2
