*** Life<ConwayCell> 8x7 ***

Generation = 0, Population = 13.
.......
.......
*.....*
.*.....
.*.....
****...
..**...
..**..*

Generation = 188, Population = 0.
.......
.......
.......
.......
.......
.......
.......
.......

*** Life<ConwayCell> 7x15 ***

Generation = 0, Population = 16.
......*........
.**..**........
............*..
.*.....*.......
.....**..*.....
..*...........*
.......*.*.*...

Generation = 66, Population = 4.
......*........
.....*.*.......
......*........
...............
...............
...............
...............

Generation = 132, Population = 4.
......*........
.....*.*.......
......*........
...............
...............
...............
...............

Generation = 198, Population = 4.
......*........
.....*.*.......
......*........
...............
...............
...............
...............

Generation = 264, Population = 4.
......*........
.....*.*.......
......*........
...............
...............
...............
...............

Generation = 330, Population = 4.
......*........
.....*.*.......
......*........
...............
...............
...............
...............

Generation = 396, Population = 4.
......*........
.....*.*.......
......*........
...............
...............
...............
...............

Generation = 462, Population = 4.
......*........
.....*.*.......
......*........
...............
...............
...............
...............

*** Life<ConwayCell> 5x6 ***

Generation = 0, Population = 20.
..**.*
.****.
.*.***
*..***
*****.

Generation = 182, Population = 7.
**....
*.*...
*.*...
.*....
......

Generation = 364, Population = 7.
**....
*.*...
*.*...
.*....
......

Generation = 546, Population = 7.
**....
*.*...
*.*...
.*....
......

*** Life<ConwayCell> 6x14 ***

Generation = 0, Population = 20.
*...**.*..***.
..*...........
..*...........
...*...*...*..
....*....*.*..
*...**..**....

Generation = 175, Population = 4.
..............
..............
..............
..............
........**....
........**....

Generation = 350, Population = 4.
..............
..............
..............
..............
........**....
........**....

*** Life<ConwayCell> 8x7 ***

Generation = 0, Population = 21.
....*.*
**.....
*....*.
..**.**
.*..*.*
**..*.*
*......
..*..**

Generation = 33, Population = 6.
.......
.*.....
*.*....
*.*....
.*.....
.......
.......
.......

*** Life<ConwayCell> 14x11 ***

Generation = 0, Population = 13.
.........*.
....*.*....
...........
...........
...........
......**...
......*....
....**.....
...........
...........
...........
......*....
..*...*..*.
.*.........

Generation = 92, Population = 5.
...........
...........
...........
...........
...........
......**...
.....*.*...
......*....
...........
...........
...........
...........
...........
...........

Generation = 184, Population = 5.
...........
...........
...........
...........
...........
......**...
.....*.*...
......*....
...........
...........
...........
...........
...........
...........

Generation = 276, Population = 5.
...........
...........
...........
...........
...........
......**...
.....*.*...
......*....
...........
...........
...........
...........
...........
...........

Generation = 368, Population = 5.
...........
...........
...........
...........
...........
......**...
.....*.*...
......*....
...........
...........
...........
...........
...........
...........

Generation = 460, Population = 5.
...........
...........
...........
...........
...........
......**...
.....*.*...
......*....
...........
...........
...........
...........
...........
...........

Generation = 552, Population = 5.
...........
...........
...........
...........
...........
......**...
.....*.*...
......*....
...........
...........
...........
...........
...........
...........

*** Life<ConwayCell> 12x11 ***

Generation = 0, Population = 19.
*..........
.*.........
.........**
.*.*....*..
.*.....**.*
...........
......*....
.....*.....
....*......
...*.....*.
.....*....*
.........*.

Generation = 195, Population = 3.
...........
...........
...........
...........
...........
...........
.......*...
.......*...
.......*...
...........
...........
...........

*** Life<ConwayCell> 7x12 ***

Generation = 0, Population = 13.
............
..****..*...
.......**...
......*.*...
.....*..*...
*........*..
............

Generation = 92, Population = 12.
.......**...
.......**...
............
............
............
.....**.**..
.....**.**..

Generation = 184, Population = 12.
.......**...
.......**...
............
............
............
.....**.**..
.....**.**..

Generation = 276, Population = 12.
.......**...
.......**...
............
............
............
.....**.**..
.....**.**..

Generation = 368, Population = 12.
.......**...
.......**...
............
............
............
.....**.**..
.....**.**..

*** Life<ConwayCell> 8x15 ***

Generation = 0, Population = 12.
...............
...............
*.*.......*....
...............
.*..*....*.....
.*.*...........
.....*.....*...
..*........*...

Generation = 85, Population = 0.
...............
...............
...............
...............
...............
...............
...............
...............

Generation = 170, Population = 0.
...............
...............
...............
...............
...............
...............
...............
...............

Generation = 255, Population = 0.
...............
...............
...............
...............
...............
...............
...............
...............
