*** Life<ConwayCell> 5x11 ***

Generation = 0, Population = 7.
...........
**..**.....
.....*..*..
..........*
...........

Generation = 2, Population = 4.
...........
....**.....
....**.....
...........
...........

Generation = 4, Population = 4.
...........
....**.....
....**.....
...........
...........

Generation = 6, Population = 4.
...........
....**.....
....**.....
...........
...........

Generation = 8, Population = 4.
...........
....**.....
....**.....
...........
...........

Generation = 10, Population = 4.
...........
....**.....
....**.....
...........
...........

Generation = 12, Population = 4.
...........
....**.....
....**.....
...........
...........

Generation = 14, Population = 4.
...........
....**.....
....**.....
...........
...........

*** Life<ConwayCell> 6x7 ***

Generation = 0, Population = 5.
.......
.**....
.......
.*.....
*....*.
.......

Generation = 1, Population = 2.
.......
.......
.**....
.......
.......
.......

Generation = 2, Population = 0.
.......
.......
.......
.......
.......
.......

Generation = 3, Population = 0.
.......
.......
.......
.......
.......
.......

Generation = 4, Population = 0.
.......
.......
.......
.......
.......
.......

Generation = 5, Population = 0.
.......
.......
.......
.......
.......
.......

Generation = 6, Population = 0.
.......
.......
.......
.......
.......
.......

Generation = 7, Population = 0.
.......
.......
.......
.......
.......
.......

*** Life<ConwayCell> 8x5 ***

Generation = 0, Population = 5.
..*..
..*..
.....
.*...
....*
.....
*....
.....

Generation = 1, Population = 0.
.....
.....
.....
.....
.....
.....
.....
.....

Generation = 2, Population = 0.
.....
.....
.....
.....
.....
.....
.....
.....

Generation = 3, Population = 0.
.....
.....
.....
.....
.....
.....
.....
.....

Generation = 4, Population = 0.
.....
.....
.....
.....
.....
.....
.....
.....

Generation = 5, Population = 0.
.....
.....
.....
.....
.....
.....
.....
.....

Generation = 6, Population = 0.
.....
.....
.....
.....
.....
.....
.....
.....

*** Life<ConwayCell> 9x3 ***

Generation = 0, Population = 7.
.*.
.*.
*..
...
..*
*..
.**
...
...

Generation = 2, Population = 0.
...
...
...
...
...
...
...
...
...

Generation = 4, Population = 0.
...
...
...
...
...
...
...
...
...

Generation = 6, Population = 0.
...
...
...
...
...
...
...
...
...

Generation = 8, Population = 0.
...
...
...
...
...
...
...
...
...

*** Life<ConwayCell> 5x11 ***

Generation = 0, Population = 7.
...........
**..**.....
.....*..*..
..........*
...........

Generation = 2, Population = 4.
...........
....**.....
....**.....
...........
...........

Generation = 4, Population = 4.
...........
....**.....
....**.....
...........
...........

*** Life<ConwayCell> 6x7 ***

Generation = 0, Population = 5.
.......
.**....
.......
.*.....
*....*.
.......

Generation = 1, Population = 2.
.......
.......
.**....
.......
.......
.......

Generation = 2, Population = 0.
.......
.......
.......
.......
.......
.......

Generation = 3, Population = 0.
.......
.......
.......
.......
.......
.......

Generation = 4, Population = 0.
.......
.......
.......
.......
.......
.......

Generation = 5, Population = 0.
.......
.......
.......
.......
.......
.......

Generation = 6, Population = 0.
.......
.......
.......
.......
.......
.......

*** Life<ConwayCell> 8x11 ***

Generation = 0, Population = 10.
...........
.***.......
......*....
.......*...
.*.........
.*.........
....**.....
......*....

Generation = 1, Population = 5.
..*........
..*........
..*........
...........
...........
...........
.....*.....
.....*.....
