*** Life<Cell> 12x5 ***

Generation = 0, Population = 9.
-----
-----
----0
---0-
-----
--0--
-----
---0-
-0---
--0-0
--0--
--0--

Generation = 1, Population = 21.
-----
----0
-----
--0--
--00-
-0-0-
--00-
-00-0
0--00
--1--
-0-00
-010-

Generation = 2, Population = 20.
----0
---0-
--0-0
-01--
----0
0---0
-0---
-1--1
--01-
0--0-
01--1
0----

Generation = 3, Population = 26.
-----
----0
--10-
01-0-
00001
---01
-10--
0*---
0-1--
1--1-
1*0--
1---0

*** Life<Cell> 9x13 ***

Generation = 0, Population = 10.
--------0----
-------------
------0------
-----0-------
-------0---0-
-------------
---0-----0---
-----0---0---
-0-----------

Generation = 2, Population = 18.
--------0-0--
-----0-------
----0--1---0-
---0---1-----
---0-11--0---
---------1---
-----1-------
---1-------0-
-0-------1---

*** Life<Cell> 12x12 ***

Generation = 0, Population = 9.
------------
-0--------0-
------------
----0-----0-
0----0------
------------
------------
------------
-------0----
--------0-0-
------------
------------

Generation = 1, Population = 23.
-0--------0-
0-0------0-0
-0--0-------
0--0-----0-0
-0----0---0-
0----0------
------------
-------0----
------0---0-
-----------0
--------0-0-
------------

Generation = 2, Population = 30.
------------
---00---0-0-
0----0------
-00---0-0-0-
0-00---0----
----0-----0-
0----0-0----
--------0-0-
-----0---0--
------0-0-0-
-------0----
--------0-0-

Generation = 3, Population = 33.
---00---0-0-
0-011--0---0
--00--------
01-----0---0
-0-1--------
--0------0-0
-0----------
0--------0-0
----0---0-0-
-------0-0-0
--------0---
-----------0

Generation = 4, Population = 26.
0----0------
-----00-----
------------
1-----0-0-0-
-10-0--0-0--
-0------0---
------------
----0-----0-
0--0-0-----0
----0-0---0-
------------
--------0-0-

Generation = 5, Population = 40.
-0--01------
0---1-10----
0----0--0-0-
--0-00-0-0-0
--1--0------
01--0-------
-0--0---0-0-
0--------0--
-00-------0-
0----0-0-0--
----0-0-0---
-------0---0

Generation = 6, Population = 68.
--00-*-0----
1--1*-*1--0-
100-01-0-0--
111-11--0-0-
0-*10100-0-0
1--01---0-0-
010010-0-0-0
-00-0-----0-
0110-0-0-0-0
--0---0-0---
0--0-0-----0
----0-----0-

Generation = 7, Population = 68.
001-0*010-0-
*-0-.-.*0--0
*1-01-010-0-
***0**-0----
-1.*-*-1----
--01*000---0
-*11-1--0---
011-10---0-0
1*-10-0-0-0-
--10-0-0----
-0--0---0---
0--------0--

Generation = 8, Population = 30.
----1*-*----
.-1-.0..100-
.----11-----
...-..0---0-
-*..-.0-0--0
-1--.-----0-
-.----------
--------0-0-
-.-----0-0--
00*---0-0-0-
------------
----0-----0-

*** Life<Cell> 9x5 ***

Generation = 0, Population = 12.
----0
--0--
-----
-----
---0-
00-0-
0----
0-0--
0-0-0

*** Life<Cell> 12x11 ***

Generation = 0, Population = 12.
--0-0-0----
-----------
-----------
0--0-------
-----------
------0----
-----------
---00------
0---0---0--
-----------
----------0
-----------

Generation = 2, Population = 27.
0---0---0--
0--0-------
--0-0-0----
011--00----
-----------
0-------0--
0---1---0--
-01--1-----
0----------
---01------
0---0-----0
-----------

*** Life<Cell> 10x11 ***

Generation = 0, Population = 14.
----0------
------0----
--000-----0
0----------
-0---------
0-------0--
-----------
--------0--
---------0-
----0--0---

Generation = 2, Population = 38.
---1--1---0
0---0---0--
1-*--11-0-0
--1---0-0--
--1-0-----0
--0---0-0-0
-0-------0-
0---0-010-0
-------1---
--0-011011-

Generation = 4, Population = 37.
10110---1-0
*-----0-*-0
.0.11*-0---
----1---*--
-1--01---1-
--*-1-00--*
--001-----1
0------.--0
-0---1-----
---0----1.-

Generation = 6, Population = 58.
1011*--1*-*
.-1---0-.--
.0*****0--1
0---1---*00
-1---.010-1
--*-11*-10.
110--11-011
0--11-1.---
--111--1-01
01-0-*1--.0

*** Life<Cell> 8x12 ***

Generation = 0, Population = 12.
-0-0-0----0-
-----0-0-0--
------------
------------
-0-------0--
------------
--------0-0-
-0----------

Generation = 1, Population = 29.
0----100---0
-0-001------
-----0-0-0--
-0-------0--
0-0-----0-0-
-0------000-
-0-----0---0
0-0-----0-0-

Generation = 2, Population = 28.
---0---10-0-
---1-*---0-0
---0-1---10-
-----0-0-1--
---0---01-10
-1----------
-1----0-000-
-0-0--------

Generation = 3, Population = 57.
--01010*10--
--0--.00-1--
--01--000*1-
----01-10*00
-00-000-*0*1
0*00--00-0-0
0-00-0--1-10
01--0-0-000-

Generation = 4, Population = 23.
-0----1.--0-
-0-10.11----
-0-*----1.--
-0-------.--
---0-1--.-.*
-.---0-1-1--
----0-0-*---
-*---0------

Generation = 5, Population = 43.
010101**-0-0
0---1*-*--0-
0--*--0--.--
010--1--0.-0
-00--*00.0..
-.-0-10-0-00
-1-0---0*---
0.0-----0---

Generation = 6, Population = 40.
----1*.*--0-
--01-.-*0---
---*-1--1.10
-*--0*0--.0-
----0.11.-.*
-*-1----1111
--0100-1*010
-*------10--

*** Life<Cell> 8x12 ***

Generation = 0, Population = 9.
------------
--------0---
------0-----
--0--0------
------------
------------
0-----00--0-
---------0--

Generation = 1, Population = 26.
--------0---
------00-0--
--0----00---
-0-00-------
--0--0------
0-----00--0-
-0---0110--0
0-----000---

*** Life<Cell> 9x5 ***

Generation = 0, Population = 3.
-----
-----
-----
----0
--0--
-----
-0---
-----
-----

Generation = 1, Population = 11.
-----
-----
----0
--00-
-0-00
-00--
0-0--
-0---
-----

*** Life<Cell> 15x6 ***

Generation = 0, Population = 13.
-----0
-0---0
------
------
-00-0-
------
-----0
------
------
0-----
------
0-00--
--0--0
------
------

Generation = 2, Population = 37.
---0--
-----*
-10-01
-1---0
1-*001
------
-00010
0-----
-----0
---0--
--1--0
000-11
1--010
0-10--
--0--0

Generation = 4, Population = 33.
--101-
-1-1-.
-----*
-.----
-*.-0-
11---0
-*-0--
0-11--
-0--10
--0-1-
--.--*
0-0-1*
10-0*-
*-----
--*--0
