20

14 16
2
6 14
12 13
54 141

5 16
5
2 1
2 15
0 1
3 1
0 2
22 47

1 10
5
0 1
0 3
0 0
0 0
0 6
35 172

13 5
4
0 4
8 1
9 0
5 3
60 36

17 12
6
0 8
3 8
12 11
6 10
11 3
12 4
79 3

20 7
5
3 4
6 3
0 5
4 0
17 1
3 105

19 14
9
5 10
8 0
15 2
6 0
14 10
8 12
4 13
6 1
10 13
26 2

2 4
10
0 2
1 2
0 2
0 1
1 3
1 0
1 2
1 0
0 0
0 2
18 11

5 16
1
3 13
61 143

4 9
4
2 7
3 6
3 3
1 0
66 16

14 10
10
2 4
9 1
13 8
7 5
1 7
2 5
4 8
11 2
2 3
3 3
89 39

10 10
6
9 1
5 7
8 0
3 5
5 5
9 0
42 129

20 16
9
2 11
8 10
16 10
16 1
2 5
11 11
5 7
10 5
13 8
76 121

8 2
1
4 0
44 196

6 10
7
0 5
3 1
2 1
4 3
5 8
5 9
2 2
93 49

5 7
4
3 1
1 6
0 0
0 0
57 191

18 19
3
6 6
12 16
9 17
57 19

9 4
5
5 0
0 2
6 2
5 3
4 1
62 23

7 7
5
4 4
4 4
1 4
4 0
0 4
66 97

8 10
10
0 1
0 3
4 2
4 2
3 0
2 9
6 0
6 4
7 9
0 6
80 122
