*** Life<ConwayCell> 5x6 ***

Generation = 0, Population = 12.
.*.**.
.*..**
...*..
**.*..
.*...*

Generation = 4, Population = 9.
....**
*....*
...**.
*..**.
......

Generation = 8, Population = 12.
...***
..**.*
.*...*
..***.
...*..

Generation = 12, Population = 14.
..***.
**.*..
*..*.*
***.**
......

*** Life<ConwayCell> 6x7 ***

Generation = 0, Population = 9.
*......
..***..
....**.
.......
.....**
..*....

Generation = 4, Population = 4.
.......
...**..
....**.
.......
.......
.......

Generation = 8, Population = 6.
....*..
...*.*.
...*.*.
....*..
.......
.......

Generation = 12, Population = 6.
....*..
...*.*.
...*.*.
....*..
.......
.......

Generation = 16, Population = 6.
....*..
...*.*.
...*.*.
....*..
.......
.......

*** Life<ConwayCell> 5x8 ***

Generation = 0, Population = 12.
........
..*.*...
...*.**.
...*....
*.*****.

*** Life<ConwayCell> 10x5 ***

Generation = 0, Population = 5.
.....
.....
.*...
.....
.....
*....
*....
*....
...*.
.....

Generation = 2, Population = 0.
.....
.....
.....
.....
.....
.....
.....
.....
.....
.....

Generation = 4, Population = 0.
.....
.....
.....
.....
.....
.....
.....
.....
.....
.....

Generation = 6, Population = 0.
.....
.....
.....
.....
.....
.....
.....
.....
.....
.....

Generation = 8, Population = 0.
.....
.....
.....
.....
.....
.....
.....
.....
.....
.....

Generation = 10, Population = 0.
.....
.....
.....
.....
.....
.....
.....
.....
.....
.....

Generation = 12, Population = 0.
.....
.....
.....
.....
.....
.....
.....
.....
.....
.....

Generation = 14, Population = 0.
.....
.....
.....
.....
.....
.....
.....
.....
.....
.....

*** Life<ConwayCell> 9x5 ***

Generation = 0, Population = 7.
.*...
...*.
*....
.....
.....
.....
.*..*
...*.
....*

Generation = 3, Population = 0.
.....
.....
.....
.....
.....
.....
.....
.....
.....

Generation = 6, Population = 0.
.....
.....
.....
.....
.....
.....
.....
.....
.....

Generation = 9, Population = 0.
.....
.....
.....
.....
.....
.....
.....
.....
.....

*** Life<ConwayCell> 9x10 ***

Generation = 0, Population = 20.
.*........
...**.*...
.........*
....*.....
*...**.*.*
**.......*
..***.*...
.....*.*..
..........

Generation = 5, Population = 9.
..........
...*..*...
.......*..
..*....*..
..*....*..
......*...
...*......
..........
..........

*** Life<ConwayCell> 5x6 ***

Generation = 0, Population = 10.
..**..
....*.
*..*..
..*...
*..***

Generation = 3, Population = 9.
...*..
..*.*.
.*..*.
.*..*.
..**..

Generation = 6, Population = 11.
..***.
.*...*
*.....
.*...*
..***.

Generation = 9, Population = 6.
......
**....
**....
**....
......

*** Life<ConwayCell> 6x6 ***

Generation = 0, Population = 8.
..*...
......
*.*...
..*...
**...*
.*....

Generation = 5, Population = 6.
......
.**...
.**...
..**..
......
......
