*** Life<ConwayCell> 12x37 ***

Generation = 0, Population = 23.
...*.................*...............
..........**.....*..........*.......*
....*..............*.................
..........*..........................
.*............*...........*.........*
......*..............................
.....................................
......*....*.................*.....*.
...................*.................
.....................................
..................*........*.........
..............................*......

Generation = 8, Population = 0.
.....................................
.....................................
.....................................
.....................................
.....................................
.....................................
.....................................
.....................................
.....................................
.....................................
.....................................
.....................................

*** Life<ConwayCell> 3x7 ***

Generation = 0, Population = 3.
.....**
.*.....
.......

Generation = 1, Population = 0.
.......
.......
.......

*** Life<ConwayCell> 17x31 ***

Generation = 0, Population = 7.
..............*................
...............................
...............................
...............................
...............................
........................*......
...............................
.........................*.....
...............................
...............................
..........*....................
............*..................
...............................
..............*................
...............................
.............................*.
...............................

Generation = 2, Population = 0.
...............................
...............................
...............................
...............................
...............................
...............................
...............................
...............................
...............................
...............................
...............................
...............................
...............................
...............................
...............................
...............................
...............................

*** Life<ConwayCell> 6x7 ***

Generation = 0, Population = 10.
..*..**
...**..
.....*.
.*.....
.*...**
.......

Generation = 3, Population = 6.
.......
...*.*.
....**.
....**.
.......
.......

*** Life<ConwayCell> 7x37 ***

Generation = 0, Population = 26.
....*................................
.*........*.*...........*.*......*...
..........*...........*.....**.....*.
..*...................*...*.......*..
...........*...........*.............
..........*........*......*..........
....*..............*.....*......**...

Generation = 4, Population = 6.
.....................................
.......................*.............
......................*.*............
......................*.*............
.......................*.............
.....................................
.....................................

*** Life<ConwayCell> 6x13 ***

Generation = 0, Population = 17.
.*...*...*..*
*....*..*..*.
....*........
*...*.....*..
..*..*.....*.
......**.....

Generation = 5, Population = 10.
.............
....**.......
...*..*......
....*.*......
....*..*.....
.....**......

*** Life<ConwayCell> 29x10 ***

Generation = 0, Population = 9.
..........
......*...
..........
..........
..........
..........
..........
.*........
..........
..........
..........
.........*
..........
.*........
..........
..........
..........
*.........
..........
..........
..........
..*.....*.
..........
..........
..........
..........
..........
.........*
......*...

Generation = 3, Population = 0.
..........
..........
..........
..........
..........
..........
..........
..........
..........
..........
..........
..........
..........
..........
..........
..........
..........
..........
..........
..........
..........
..........
..........
..........
..........
..........
..........
..........
..........

*** Life<ConwayCell> 8x10 ***

Generation = 0, Population = 10.
.....*....
..*.....*.
..........
.....*.*..
..........
*.....*...
.....*.*..
.........*

Generation = 1, Population = 3.
..........
..........
..........
..........
......*...
......*...
......*...
..........

Generation = 2, Population = 3.
..........
..........
..........
..........
..........
.....***..
..........
..........

*** Life<ConwayCell> 1x31 ***

Generation = 0, Population = 14.
.*.*.*..***.***.**.*.......**..

Generation = 3, Population = 0.
...............................

Generation = 6, Population = 0.
...............................

Generation = 9, Population = 0.
...............................
