*** Life<ConwayCell> 4x4 ***

Generation = 0, Population = 5.
***.
**..
....
....

Generation = 1, Population = 4.
*.*.
*.*.
....
....

Generation = 2, Population = 0.
....
....
....
....

*** Life<ConwayCell> 4x4 ***

Generation = 0, Population = 4.
.**.
**..
....
....

Generation = 1, Population = 6.
***.
***.
....
....

Generation = 2, Population = 5.
*.*.
*.*.
.*..
....

*** Life<ConwayCell> 4x4 ***

Generation = 0, Population = 4.
*.*.
**..
....
....

Generation = 1, Population = 3.
*...
**..
....
....

Generation = 2, Population = 4.
**..
**..
....
....

*** Life<ConwayCell> 4x4 ***

Generation = 0, Population = 4.
***.
.*..
....
....

Generation = 1, Population = 6.
***.
***.
....
....

Generation = 2, Population = 5.
*.*.
*.*.
.*..
....

*** Life<ConwayCell> 4x4 ***

Generation = 0, Population = 4.
**..
**..
....
....

Generation = 1, Population = 4.
**..
**..
....
....

Generation = 2, Population = 4.
**..
**..
....
....

*** Life<ConwayCell> 10x10 ***

Generation = 0, Population = 3.
..........
..........
..........
..........
***.......
..........
..........
..........
..........
..........

Generation = 1, Population = 3.
..........
..........
..........
.*........
.*........
.*........
..........
..........
..........
..........

Generation = 2, Population = 3.
..........
..........
..........
..........
***.......
..........
..........
..........
..........
..........

*** Life<ConwayCell> 8x8 ***

Generation = 0, Population = 3.
........
........
........
........
........
***.....
........
........

Generation = 1, Population = 3.
........
........
........
........
.*......
.*......
.*......
........

*** Life<ConwayCell> 5x5 ***

Generation = 0, Population = 3.
.....
.....
***..
.....
.....

Generation = 1, Population = 3.
.....
.*...
.*...
.*...
.....

Generation = 2, Population = 3.
.....
.....
***..
.....
.....

*** Life<ConwayCell> 5x5 ***

Generation = 0, Population = 3.
.....
.....
.....
***..
.....

Generation = 1, Population = 3.
.....
.....
.*...
.*...
.*...

Generation = 2, Population = 3.
.....
.....
.....
***..
.....

*** Life<ConwayCell> 10x10 ***

Generation = 0, Population = 3.
..........
..........
..........
.*........
..........
..........
**........
..........
..........
..........

Generation = 1, Population = 0.
..........
..........
..........
..........
..........
..........
..........
..........
..........
..........

Generation = 2, Population = 0.
..........
..........
..........
..........
..........
..........
..........
..........
..........
..........

*** Life<ConwayCell> 10x10 ***

Generation = 0, Population = 5.
*.*.......
**........
..........
..........
..........
..........
..........
.*........
..........
..........

Generation = 1, Population = 3.
*.........
**........
..........
..........
..........
..........
..........
..........
..........
..........

Generation = 2, Population = 4.
**........
**........
..........
..........
..........
..........
..........
..........
..........
..........

*** Life<ConwayCell> 10x10 ***

Generation = 0, Population = 4.
.**.......
.*......*.
..........
..........
..........
..........
..........
..........
..........
..........

Generation = 1, Population = 4.
.**.......
.**.......
..........
..........
..........
..........
..........
..........
..........
..........

Generation = 2, Population = 4.
.**.......
.**.......
..........
..........
..........
..........
..........
..........
..........
..........

*** Life<ConwayCell> 10x10 ***

Generation = 0, Population = 5.
*.*.......
**.......*
..........
..........
..........
..........
..........
..........
..........
..........

Generation = 1, Population = 3.
*.........
**........
..........
..........
..........
..........
..........
..........
..........
..........

Generation = 2, Population = 4.
**........
**........
..........
..........
..........
..........
..........
..........
..........
..........

*** Life<ConwayCell> 10x10 ***

Generation = 0, Population = 5.
***.......
.*..*.....
..........
..........
..........
..........
..........
..........
..........
..........

Generation = 1, Population = 6.
***.......
***.......
..........
..........
..........
..........
..........
..........
..........
..........

Generation = 2, Population = 5.
*.*.......
*.*.......
.*........
..........
..........
..........
..........
..........
..........
..........

*** Life<ConwayCell> 10x10 ***

Generation = 0, Population = 5.
**...*....
**........
..........
..........
..........
..........
..........
..........
..........
..........

Generation = 1, Population = 4.
**........
**........
..........
..........
..........
..........
..........
..........
..........
..........

Generation = 2, Population = 4.
**........
**........
..........
..........
..........
..........
..........
..........
..........
..........

*** Life<ConwayCell> 10x10 ***

Generation = 0, Population = 4.
..........
..........
..........
..*.......
**........
..........
..........
..........
.*........
..........

Generation = 1, Population = 2.
..........
..........
..........
.*........
.*........
..........
..........
..........
..........
..........

Generation = 2, Population = 0.
..........
..........
..........
..........
..........
..........
..........
..........
..........
..........

*** Life<ConwayCell> 10x10 ***

Generation = 0, Population = 4.
..........
..........
..........
.*........
..........
***.......
..........
..........
..........
..........

Generation = 1, Population = 4.
..........
..........
..........
..........
*.*.......
.*........
.*........
..........
..........
..........

Generation = 2, Population = 4.
..........
..........
..........
..........
.*........
***.......
..........
..........
..........
..........

*** Life<ConwayCell> 5x5 ***

Generation = 0, Population = 4.
.....
.....
***..
.....
.*...

Generation = 1, Population = 4.
.....
.*...
.*...
*.*..
.....

Generation = 2, Population = 4.
.....
.....
***..
.*...
.....

*** Life<ConwayCell> 5x5 ***

Generation = 0, Population = 3.
.....
.....
.....
***..
.....

Generation = 1, Population = 3.
.....
.....
.*...
.*...
.*...

Generation = 2, Population = 3.
.....
.....
.....
***..
.....

*** Life<ConwayCell> 10x10 ***

Generation = 0, Population = 2.
..........
..........
..........
..........
..........
..........
..........
..........
..........
**........

Generation = 1, Population = 0.
..........
..........
..........
..........
..........
..........
..........
..........
..........
..........

Generation = 2, Population = 0.
..........
..........
..........
..........
..........
..........
..........
..........
..........
..........
