*** Life<ConwayCell> 8x8 ***

Generation = 0, Population = 10.
........
........
..*.....
...***..
.*.*....
*..*....
...*....
*.......

*** Life<ConwayCell> 1x4 ***

Generation = 0, Population = 3.
**.*

Generation = 2, Population = 0.
....

*** Life<ConwayCell> 5x3 ***

Generation = 0, Population = 7.
...
.*.
.**
***
..*

Generation = 1, Population = 4.
...
.**
...
*..
..*

Generation = 2, Population = 1.
...
...
.*.
...
...

Generation = 3, Population = 0.
...
...
...
...
...

Generation = 4, Population = 0.
...
...
...
...
...

Generation = 5, Population = 0.
...
...
...
...
...

Generation = 6, Population = 0.
...
...
...
...
...

*** Life<ConwayCell> 8x3 ***

Generation = 0, Population = 9.
.**
*..
**.
.**
*..
.*.
...
...

Generation = 1, Population = 8.
.*.
*.*
*.*
..*
*.*
...
...
...

Generation = 2, Population = 6.
.*.
*.*
..*
..*
.*.
...
...
...

Generation = 3, Population = 5.
.*.
..*
..*
.**
...
...
...
...

Generation = 4, Population = 5.
...
.**
..*
.**
...
...
...
...

Generation = 5, Population = 4.
...
.**
...
.**
...
...
...
...

Generation = 6, Population = 0.
...
...
...
...
...
...
...
...

Generation = 7, Population = 0.
...
...
...
...
...
...
...
...

Generation = 8, Population = 0.
...
...
...
...
...
...
...
...

*** Life<ConwayCell> 6x4 ***

Generation = 0, Population = 10.
..*.
..**
*.*.
**..
.*..
**..

Generation = 2, Population = 6.
..**
....
....
..*.
*.*.
.*..

Generation = 4, Population = 2.
....
....
....
....
.**.
....

Generation = 6, Population = 0.
....
....
....
....
....
....

*** Life<ConwayCell> 7x9 ***

Generation = 0, Population = 10.
....*...*
...*.....
...*..*..
...*.....
.........
..*.....*
*..*.....

Generation = 2, Population = 5.
.........
..*.*....
..*.*....
...*.....
.........
.........
.........

*** Life<ConwayCell> 3x7 ***

Generation = 0, Population = 10.
.*..*..
*****..
*.*...*

Generation = 1, Population = 8.
**..*..
*...**.
*.*....

Generation = 2, Population = 9.
**..**.
*..***.
.*.....

Generation = 3, Population = 9.
**.*.*.
*.**.*.
....*..

Generation = 4, Population = 9.
**.*...
*.**.*.
...**..

Generation = 5, Population = 8.
**.**..
*......
..***..

Generation = 6, Population = 4.
**.....
*......
...*...

Generation = 7, Population = 4.
**.....
**.....
.......

*** Life<ConwayCell> 2x4 ***

Generation = 0, Population = 7.
****
**.*

Generation = 2, Population = 0.
....
....

Generation = 4, Population = 0.
....
....

Generation = 6, Population = 0.
....
....

*** Life<ConwayCell> 5x4 ***

Generation = 0, Population = 9.
*...
*.*.
*..*
..*.
*.**

Generation = 1, Population = 8.
.*..
*...
..**
..*.
.***

Generation = 2, Population = 8.
....
.**.
.***
....
.***

Generation = 3, Population = 5.
....
.*.*
.*.*
....
..*.

Generation = 4, Population = 1.
....
....
....
..*.
....

Generation = 5, Population = 0.
....
....
....
....
....

Generation = 6, Population = 0.
....
....
....
....
....

Generation = 7, Population = 0.
....
....
....
....
....

Generation = 8, Population = 0.
....
....
....
....
....

*** Life<ConwayCell> 8x1 ***

Generation = 0, Population = 6.
*
.
*
*
.
*
*
*

Generation = 2, Population = 0.
.
.
.
.
.
.
.
.
