*** Life<Cell> 11x85 ***

Generation = 0, Population = 3.
-------------------------------------------------------------------------------------
-------------------------------------------------------------------------------------
-------------------------------------------------------------------------------------
-------------0------------------------------------------------0--------0-------------
-------------------------------------------------------------------------------------
-------------------------------------------------------------------------------------
-------------------------------------------------------------------------------------
-------------------------------------------------------------------------------------
-------------------------------------------------------------------------------------
-------------------------------------------------------------------------------------
-------------------------------------------------------------------------------------

*** Life<Cell> 3x15 ***

Generation = 0, Population = 6.
-----0-------0-
---0-----00----
---------0-----

*** Life<Cell> 9x35 ***

Generation = 0, Population = 4.
----------0------------------------
-----0-----------------------------
-----------------------------------
-----------------------------------
------0----------------------------
-----------------0-----------------
-----------------------------------
-----------------------------------
-----------------------------------

*** Life<Cell> 4x19 ***

Generation = 0, Population = 2.
-------0-----------
--------0----------
-------------------
-------------------

*** Life<Cell> 3x69 ***

Generation = 0, Population = 10.
---------------------------------0-----------------------------------
--0---------------0--------0-------------------0-----0----------0----
--------------------0---------0-------------------------0------------

*** Life<Cell> 4x3 ***

Generation = 0, Population = 5.
-0-
00-
---
-00

*** Life<Cell> 12x5 ***

Generation = 0, Population = 8.
----0
-----
-----
--0--
0----
----0
-----
0--0-
0----
-0---
-----
-----

Generation = 19, Population = 17.
-..*1
*...*
11.*.
..-..
.....
.....
..-..
....1
..***
..1*.
.*.*.
.**-.

Generation = 38, Population = 4.
**...
**...
.....
.....
.....
.....
..-..
.....
.....
.....
.....
.....

Generation = 57, Population = 4.
**...
**...
.....
.....
.....
.....
..-..
.....
.....
.....
.....
.....

Generation = 76, Population = 4.
**...
**...
.....
.....
.....
.....
..-..
.....
.....
.....
.....
.....

*** Life<Cell> 10x21 ***

Generation = 0, Population = 4.
---------------------
---0-----------------
---------------------
---------------------
------------0--------
-------0-------------
---------------------
---------------------
---------------------
--------------------0

*** Life<Cell> 13x91 ***

Generation = 0, Population = 1.
-------------------------------------------------------------------------------------------
-------------------------------------------------------------------------------------------
-------------------------------------------------------------------------------------------
-------------------------------------------------------------------------------------------
-------------------------------------------------------------------------------------------
-------------------------------------------------------------------------------------------
-------------------------------------------------------------------------------------------
-------------------0-----------------------------------------------------------------------
-------------------------------------------------------------------------------------------
-------------------------------------------------------------------------------------------
-------------------------------------------------------------------------------------------
-------------------------------------------------------------------------------------------
-------------------------------------------------------------------------------------------

*** Life<Cell> 11x79 ***

Generation = 0, Population = 9.
------------0------------------------------------------------------------------
------------------------0------------------------------------------------------
-------------------------------------------------------------------------------
-------------------------------------------------------------------------------
-----------------------------0-------------------------------------------------
----------------------------------------0--------------------------------------
---------------------------------------------0---------------------------------
----------------0--------------------------------------------------------------
-------------------------------0-----------------------------------------------
------------------------------------0------------------------------------------
--------------------------0----------------------------------------------------

*** Life<Cell> 9x91 ***

Generation = 0, Population = 2.
-------------------------------------------------------------------------------------------
-------------------------------------------------------------------------------------------
-------------------------------------------------------------------------------------------
-------------------------------------------------------------------------------------------
-------------------------------------------------------------------------------------------
------------------0------------------------------------------------------------------------
-------------------------------------------------------------------------------------------
--------------------0----------------------------------------------------------------------
-------------------------------------------------------------------------------------------

*** Life<Cell> 12x44 ***

Generation = 0, Population = 7.
------------------------------00------------
--------------------------------------------
--------------------------------------------
--------------------------------------------
--------------------------------------------
--------------------------------------------
---------------------------------------0----
--------------------------------------------
--------------------------------------------
----------------------------------------0---
--------------0-----------------------------
-------------0---------0--------------------

*** Life<Cell> 13x44 ***

Generation = 0, Population = 1.
--------------------------------------------
--------------------------------------------
--------------------------------------------
--------------------------------------------
--------------------------------------------
--------------------------------------------
--------------------------------------------
--------------------------------------------
--------------------------------------------
--------------------------------------------
--------------------------------------------
------0-------------------------------------
--------------------------------------------

*** Life<Cell> 3x50 ***

Generation = 0, Population = 6.
-----------------------------------------0--------
--------------0-----------------------------------
------------0------0-----------------0-------0----

*** Life<Cell> 3x31 ***

Generation = 0, Population = 6.
-----------0----------------0--
-----0------------0-----0------
-------------0-----------------

*** Life<Cell> 14x66 ***

Generation = 0, Population = 4.
------------------------------------------------------------------
------------------------------------------------------------------
------------------------------------------------------------------
------------------------------------------------------------------
--------------------------------------0---------------------------
------------------------------------------------------------------
------------0---------------------0-------------------------------
------------------------------------------------------------------
------------------------------------------------------------------
------------------------------------------------------------------
--------------------------------------------0---------------------
------------------------------------------------------------------
------------------------------------------------------------------
------------------------------------------------------------------

*** Life<Cell> 14x49 ***

Generation = 0, Population = 1.
-------------------------------------------------
----------------0--------------------------------
-------------------------------------------------
-------------------------------------------------
-------------------------------------------------
-------------------------------------------------
-------------------------------------------------
-------------------------------------------------
-------------------------------------------------
-------------------------------------------------
-------------------------------------------------
-------------------------------------------------
-------------------------------------------------
-------------------------------------------------

Generation = 57, Population = 104.
------0-0-------0-----0-0-0-----------0-0-0------
-----0---0-----0-0---0-----0---------0-----0-----
0-------------0-------0---0-----0-----0---0-----0
-0---0---0---0---0-----0-0-----0-0-----0-0-----0-
------0-0-------0-------0-----0---0-----0--------
-0-----------0-0-------------0-----0-----------0-
0-----------------------------0-0-0--------------
-------------0-0-------------------------------0-
0-------0-------0-------0-----0-0-0--------------
-0-----0-0---0---0-----0-0---0-----0-----------0-
------0-------0-------0-------0---0-----0-0-----0
-0---0---0-----0-0---0---0-----0-0-----0---0-----
0-------0-------0-------0-------0----------------
-----0-0-------------0-0---------------0---0-----

*** Life<Cell> 11x37 ***

Generation = 0, Population = 9.
-------------------------------------
0-0----------------------------------
-------------------------------------
----0----------------------0---------
-------------------------------------
-----------------------------0-------
-------------------------------------
------------------------0------0-----
------------0------------------------
-------------------------------------
-------------------------------0-----

Generation = 34, Population = 99.
..*****.**.*.1..-..*.***....*.-.-..-.
.***0**.-....0.....*....*-.**........
*-11*.......*....-....*...***........
*..-..**....*...*...-..*.*.....-....-
*.*....*.*.*....*...-.**.............
*...*.*.*..**...*....***..*..........
*....**..**..**.....-...**.........-.
.***...**.-..........**..........-...
...-...0*.***..-*..-.***..-*......-..
-......**.**....*-...*..*............
.-......**..1-.*......**......-......

*** Life<Cell> 13x8 ***

Generation = 0, Population = 7.
---0--0-
--------
--------
--------
--------
--------
0--0----
--------
---0-0--
--------
--0-----
--------
--------

Generation = 41, Population = 31.
.-......
...**...
..*.*...
.*......
........
*.**....
.***....
.*......
....**..
1...****
.......*
.*******
..****..

Generation = 82, Population = 0.
........
........
........
........
........
........
........
........
........
........
........
........
........

*** Life<Cell> 1x31 ***

Generation = 0, Population = 5.
-0-0----0-----0---------0------

Generation = 58, Population = 4.
--1-........-.-...-..1-0-0-----
