*** Life<Cell> 14x8 ***

Generation = 0, Population = 8.
------0-
--0-----
-------0
------0-
------0-
-----0--
--------
--------
-------0
--------
--------
--------
--------
0-------

Generation = 3, Population = 37.
0--01--*
-0-010*0
0-0-010-
-0----1-
--0-1--*
--0--0-1
---0----
----01--
----01--
-----0--
0-----0-
-0-----0
0-0-----
-0-0----

Generation = 6, Population = 55.
1-*11-1.
---0*..1
-0-0-*11
-1----*0
0--11-1*
1-11001*
--10--0*
000-0--0
-0-0-*0-
--01-*00
---0-100
----00--
-----0-0
------0-

*** Life<Cell> 3x8 ***

Generation = 0, Population = 8.
00-0--00
---0---0
-------0

Generation = 5, Population = 15.
1---*0*1
-.0*0*00
--0*-**.

Generation = 10, Population = 9.
.-.***.-
-.0...11
-*-.**..

Generation = 15, Population = 1.
.-.....-
-.-.....
1.-.....

*** Life<Cell> 5x12 ***

Generation = 0, Population = 21.
----00--0000
--0--------0
-0----0---0-
0-0--0-0-0-0
-0------000-

Generation = 8, Population = 29.
..***..--**.
11....10**11
--**0**----*
1-1..-.*0-..
1-**-**--.*-

*** Life<Cell> 12x13 ***

Generation = 0, Population = 38.
---0------0--
-0---0------0
-------0-----
0-0--0--0---0
--0-00-------
000-0---0----
0--00-0---0--
----0-----0--
--0---0-00-00
--------0---0
----0-0---0--
-----0-------

Generation = 4, Population = 62.
--1-0.0-----1
1-.-0----11-1
0--**-1----1-
01*.1.1-*0--0
-1*1------011
*-0.--1-----0
.0------..--0
1-1-.-*------
1-----*0*.-*0
000--0----1-*
--00--1-1*1-1
-0--1---000-0

Generation = 8, Population = 75.
1**0.*-0-0.*.
.-.0-.110..-*
*-1.*-*-1.**0
-..*.*.1.--1*
*-..1--1--**.
*01.---1*0--0
.**-*0--..-**
*-11...---*1-
**1.--.-..0.1
0*--*1-.--.1*
1.-*1---1***-
1---110.1*0-*

Generation = 12, Population = 63.
**.*..*.*-..*
*1.*1.-.*...*
.--..-.-.**.*
1..*.*...-...
.*.*1*-*1-..*
..**11.*.-***
*..1.*-*.*1.*
.-**..*---*--
.**.*0.-..**.
-*00.*1..*.-.
1.-**.*-1*...
.---.-*...--.

Generation = 16, Population = 39.
.****...*-...
.-.....*...*.
**.**..*.*.*.
*.*.....*....
*.....-..-.*.
*........-..*
*..*......*..
.-.*...1.*.1-
...*.-.-....*
-.*-..-*.*..*
1.-....-.....
..*..-**..-0.

*** Life<Cell> 11x9 ***

Generation = 0, Population = 26.
0-------0
-0---0---
-0---0---
-------0-
----0000-
000-----0
-0-0--000
--0------
---00----
00-0-----
---------

Generation = 8, Population = 45.
**.-**--1
-1.--*---
..-..**1.
1*.1*1-..
*1.0.0--*
-**..-1..
-**...*-.
-11*10-..
0.***...*
*.*...-**
-*-*.0*.0

Generation = 16, Population = 25.
......*.-
-..-.*.**
.....*..*
.*...*-..
.*.**.-*.
...**..*.
*.*....-.
-....-...
*.....**.
****..1..
-....-...

*** Life<Cell> 13x6 ***

Generation = 0, Population = 8.
------
------
----0-
------
-0----
-0----
------
------
-00--0
------
----00
------
------

*** Life<Cell> 4x3 ***

Generation = 0, Population = 4.
-0-
--0
--0
--0

Generation = 8, Population = 5.
-*.
-1-
...
1**

*** Life<Cell> 5x15 ***

Generation = 0, Population = 2.
---------------
---------------
---------------
--------0----0-
---------------

Generation = 4, Population = 4.
---------------
---------------
---------------
----0---01--1--
---------------

Generation = 8, Population = 5.
---------------
---------------
---------------
0----0--*.-.-10
---------------

Generation = 12, Population = 11.
---------0-----
--------1-00---
---------0-----
00*--1....1.*..
---------------

Generation = 16, Population = 29.
--1--10--1-----
-0011*0-.-*-1.-
1-*--1---*-11--
*-**-*....1**..
0-----0----00--
